assignments/verilog_assign_2/custom_logic.vcd
$date
	Sun Sep  7 12:34:52 2025
$end
$version
	Icarus Verilog
$end
$timescale
	1s
$end
$scope module tb_custom_logic $end
$var wire 1 ! f $end
$var reg 1 " x $end
$var reg 1 # y $end
$var reg 1 $ z $end
$upscope $end
$enddefinitions $end
$comment Show the parameter values. $end
$dumpall
$end
#0
$dumpvars
0$
0#
0"
0!
$end
#5
1$
#10
1!
0$
1#
#15
0!
1$
#20
1!
0$
0#
1"
#25
1$
#30
0$
1#
#35
1$
