Day_2/fulladd_gate/fulladd.vcd
$date
	Fri Sep  5 18:57:15 2025
$end
$version
	Icarus Verilog
$end
$timescale
	1s
$end
$scope module tb_fulladd $end
$var wire 1 ! sum $end
$var wire 1 " cout $end
$var reg 1 # a $end
$var reg 1 $ b $end
$var reg 1 % cin $end
$scope module dut $end
$var wire 1 # a $end
$var wire 1 $ b $end
$var wire 1 % cin $end
$var wire 1 " cout $end
$var wire 1 ! sum $end
$var wire 1 & w1 $end
$var wire 1 ' w2 $end
$var wire 1 ( w3 $end
$upscope $end
$upscope $end
$enddefinitions $end
$comment Show the parameter values. $end
$dumpall
$end
#0
$dumpvars
0(
0'
0&
0%
0$
0#
0"
0!
$end
#5
1!
1%
#10
0%
1$
#15
1"
0!
1'
1%
#20
0"
0'
1!
0%
0$
1#
#25
1"
0!
1(
1%
#30
0(
1&
0%
1$
#35
1!
1'
1(
1%
